…
### What is the number and percentage of missing values grouped by each observation?

``` r
miss_case_summary(insurance)
```

    ## # A tibble: 19,999 × 3
    ##     case n_miss pct_miss
    ##    <int>  <int>    <dbl>
    ##  1   217      1     11.1
    ##  2   302      1     11.1
    ##  3   304      1     11.1
    ##  4   381      1     11.1
    ##  5   418      1     11.1
    ##  6   424      1     11.1
    ##  7   642      1     11.1
    ##  8   982      1     11.1
    ##  9  1045      1     11.1
    ## 10  1159      1     11.1
    ## # ℹ 19,989 more rows
…
